Convert labelled variables to desired types — lbl_to • forlabs
…
    Details

    The absence of a .character parameter, is intentional, in order to
eliminate ambiguity character conversion is handled by two parameters,
.char_values and .char_labels.

Matching the same column in two parameters is an error, since the result
would be ambiguous.

    Examples

d <- tibble::tibble(veggies, fruit_lbl, fruit_lbl_int, fruit_lbl_chr)
lbl_to(d, .char_labels = veggies, .zapped = starts_with("fruit"))
#> # A tibble: 50 × 4
#>    veggies  fruit_lbl fruit_lbl_int fruit_lbl_chr
#>    <chr>        <dbl>         <int> <chr>        
#>  1 Tomato           3             3 c            
#>  2 Broccoli         5             5 e            
#>  3 Carrot           4             4 d            
#>  4 Cucumber         3             3 c            
#>  5 Potato           1             1 a            
#>  6 Tomato           2             2 b            
#>  7 Cucumber         1             1 a            
#>  8 Tomato           4             4 d            
#>  9 Carrot           1             1 a            
#> 10 Broccoli         1             1 a            
#> # ℹ 40 more rows
…
